src/dump.vcd
$date
	Fri Aug 30 15:50:34 2024
$end
$version
	Icarus Verilog
$end
$timescale
	1s
$end
$scope module tb_CPU_Top $end
$var reg 1 ! CLK $end
$var reg 1 " nRESET $end
$scope module uCPU_Top $end
$var wire 1 ! CLK $end
$var wire 1 " nRESET $end
$var wire 32 # pc_o [31:0] $end
$var wire 32 $ pc_incr [31:0] $end
$var wire 12 % pc_imm_B [11:0] $end
$var wire 32 & pc_i [31:0] $end
$var wire 32 ' pc_br_addr [31:0] $end
$var wire 32 ( instr [31:0] $end
$var wire 1 ) hazard $end
$var wire 2 * forward1 [1:0] $end
$var wire 2 + forward0 [1:0] $end
$var wire 1 , flush $end
$var wire 32 - extd_imm_IS [31:0] $end
$var wire 32 . extd_imm_B [31:0] $end
$var wire 1 / branch $end
$var wire 32 0 br_offset [31:0] $end
$var wire 32 1 X5 [31:0] $end
$var wire 32 2 X4 [31:0] $end
$var wire 32 3 X3 [31:0] $end
$var wire 32 4 X2 [31:0] $end
$var wire 32 5 X1 [31:0] $end
$var wire 32 6 Reg_RTdata [31:0] $end
$var wire 32 7 Reg_RSdata [31:0] $end
$var wire 32 8 Mux_fwd1_data [31:0] $end
$var wire 32 9 Mux_fwd0_data [31:0] $end
$var wire 1 : Mux_ctrl_RegWrite_o $end
$var wire 5 ; Mux_ctrl_RDaddr_o [4:0] $end
$var wire 1 < Mux_ctrl_MemWrite_o $end
$var wire 1 = Mux_ctrl_MemToReg_o $end
$var wire 1 > Mux_ctrl_MemRead_o $end
$var wire 1 ? Mux_ctrl_ALUsrc_o $end
$var wire 2 @ Mux_ctrl_ALUop_o [1:0] $end
$var wire 32 A Mux_alu_data [31:0] $end
$var wire 32 B Mux_WB_data_o [31:0] $end
$var wire 32 C MEMdata_o [31:0] $end
$var wire 1 D MEM_WB_RegWrite_o $end
$var wire 5 E MEM_WB_RDaddr_o [4:0] $end
$var wire 1 F MEM_WB_MemToReg_o $end
$var wire 32 G MEM_WB_MemData_o [31:0] $end
$var wire 32 H MEM_WB_ALUresult_o [31:0] $end
$var wire 32 I MEM_7 [31:0] $end
$var wire 32 J MEM_6 [31:0] $end
$var wire 32 K MEM_5 [31:0] $end
$var wire 32 L MEM_4 [31:0] $end
$var wire 32 M MEM_3 [31:0] $end
$var wire 32 N MEM_2 [31:0] $end
$var wire 32 O MEM_1 [31:0] $end
$var wire 32 P MEM_0 [31:0] $end
$var wire 32 Q IF_ID_pc_o [31:0] $end
$var wire 32 R IF_ID_instr_o [31:0] $end
$var wire 12 S IF_ID_imm_S [11:0] $end
$var wire 12 T IF_ID_imm_I [11:0] $end
$var wire 12 U IF_ID_imm [11:0] $end
$var wire 32 V ID_EX_pc_o [31:0] $end
$var wire 32 W ID_EX_instr_o [31:0] $end
$var wire 32 X ID_EX_imm_extd_ISo [31:0] $end
$var wire 1 Y ID_EX_RegWrite_o $end
$var wire 5 Z ID_EX_RTaddr_o [4:0] $end
$var wire 5 [ ID_EX_RSaddr_o [4:0] $end
$var wire 32 \ ID_EX_RDdata1_o [31:0] $end
$var wire 32 ] ID_EX_RDdata0_o [31:0] $end
$var wire 5 ^ ID_EX_RDaddr_o [4:0] $end
$var wire 1 _ ID_EX_MemWrite_o $end
$var wire 1 ` ID_EX_MemToReg_o $end
$var wire 1 a ID_EX_MemRead_o $end
$var wire 1 b ID_EX_ALUsrc_o $end
$var wire 2 c ID_EX_ALUop_o [1:0] $end
$var wire 1 d EX_MEM_RegWrite_o $end
$var wire 32 e EX_MEM_RDdata_o [31:0] $end
$var wire 5 f EX_MEM_RDaddr_o [4:0] $end
$var wire 1 g EX_MEM_MemWrite_o $end
$var wire 1 h EX_MEM_MemToReg_o $end
$var wire 1 i EX_MEM_MemRead_o $end
$var wire 32 j EX_MEM_ALUresult_o [31:0] $end
$var wire 1 k Ctrl_imm_sel $end
$var wire 1 l Ctrl_RegWrite_o $end
$var wire 1 m Ctrl_MemWrite_o $end
$var wire 1 n Ctrl_MemToReg_o $end
$var wire 1 o Ctrl_MemRead_o $end
$var wire 1 p Ctrl_ALUsrc_o $end
$var wire 2 q Ctrl_ALUop_o [1:0] $end
$var wire 32 r ALUresult [31:0] $end
$var wire 3 s ALUctrl [2:0] $end
$scope module Add_br $end
$var wire 32 t data_o [31:0] $end
$var wire 32 u data2_i [31:0] $end
$var wire 32 v data1_i [31:0] $end
$upscope $end
$scope module Add_pc $end
$var wire 32 w data2_i [31:0] $end
$var wire 32 x data_o [31:0] $end
$var wire 32 y data1_i [31:0] $end
$upscope $end
$scope module Imm_Extend_B $end
$var wire 12 z data1_i [11:0] $end
$var wire 32 { data_o [31:0] $end
$var wire 1 | select_i $end
$var wire 12 } data0_i [11:0] $end
$upscope $end
$scope module Imm_Extend_IS $end
$var wire 12 ~ data0_i [11:0] $end
$var wire 12 !" data1_i [11:0] $end
$var wire 1 k select_i $end
$var wire 32 "" data_o [31:0] $end
$upscope $end
$scope module Mux_WB $end
$var wire 1 F select_i $end
$var wire 32 #" data_o [31:0] $end
$var wire 32 $" data2_i [31:0] $end
$var wire 32 %" data1_i [31:0] $end
$upscope $end
$scope module Mux_alu $end
$var wire 1 b select_i $end
$var wire 32 &" data_o [31:0] $end
$var wire 32 '" data2_i [31:0] $end
$var wire 32 (" data1_i [31:0] $end
$upscope $end
$scope module Mux_fwd0 $end
$var wire 32 )" data3_i [31:0] $end
$var wire 2 *" sel [1:0] $end
$var wire 32 +" data2_i [31:0] $end
$var wire 32 ," data1_i [31:0] $end
$var reg 32 -" data_o [31:0] $end
$upscope $end
$scope module Mux_fwd1 $end
$var wire 32 ." data3_i [31:0] $end
$var wire 2 /" sel [1:0] $end
$var wire 32 0" data2_i [31:0] $end
$var wire 32 1" data1_i [31:0] $end
$var reg 32 2" data_o [31:0] $end
$upscope $end
$scope module Mux_pc $end
$var wire 32 3" data1_i [31:0] $end
$var wire 32 4" data2_i [31:0] $end
$var wire 1 / select_i $end
$var wire 32 5" data_o [31:0] $end
$upscope $end
$scope module Shift $end
$var wire 32 6" data_i [31:0] $end
$var wire 32 7" data_o [31:0] $end
$upscope $end
$scope module uALU $end
$var wire 32 8" data1_i [31:0] $end
$var wire 32 9" data2_i [31:0] $end
$var wire 3 :" ALUctrl_i [2:0] $end
$var parameter 3 ;" ADD $end
$var parameter 3 <" AND $end
$var parameter 3 =" OR $end
$var parameter 3 >" SUB $end
$var parameter 3 ?" XOR $end
$var reg 32 @" result [31:0] $end
$upscope $end
$scope module uALU_Ctrl $end
$var wire 10 A" funct_i [9:0] $end
$var wire 2 B" ALUop_i [1:0] $end
$var reg 3 C" ALUctrl_o [2:0] $end
$upscope $end
$scope module uBranchUnit $end
$var wire 3 D" funct3 [2:0] $end
$var wire 7 E" opcode [6:0] $end
$var wire 1 F" reg_not_equal $end
$var wire 1 G" reg_equal $end
$var wire 1 H" less_than $end
$var wire 1 I" greater_or_equal $end
$var wire 1 , flush $end
$var wire 1 / branch $end
$var wire 32 J" RTdata_i [31:0] $end
$var wire 32 K" RSdata_i [31:0] $end
$upscope $end
$scope module uControl $end
$var wire 7 L" ID_op_i [6:0] $end
$var reg 2 M" ALUop_o [1:0] $end
$var reg 1 p ALUsrc_o $end
$var reg 1 o MemRead_o $end
$var reg 1 n MemToReg_o $end
$var reg 1 m MemWrite_o $end
$var reg 1 l RegWrite_o $end
$var reg 1 k imm_sel $end
$upscope $end
$scope module uDATA_MEM $end
$var wire 1 ! CLK $end
$var wire 1 " nRESET $end
$var wire 32 N" read_data [31:0] $end
$var wire 32 O" mem_data_7 [31:0] $end
$var wire 32 P" mem_data_6 [31:0] $end
$var wire 32 Q" mem_data_5 [31:0] $end
$var wire 32 R" mem_data_4 [31:0] $end
$var wire 32 S" mem_data_3 [31:0] $end
$var wire 32 T" mem_data_2 [31:0] $end
$var wire 32 U" mem_data_1 [31:0] $end
$var wire 32 V" mem_data_0 [31:0] $end
$var wire 32 W" data_o [31:0] $end
$var wire 32 X" data_i [31:0] $end
$var wire 32 Y" addr_i [31:0] $end
$var wire 1 g MemWrite_i $end
$var wire 1 i MemRead_i $end
$upscope $end
$scope module uEX_MEM $end
$var wire 32 Z" ALUresult_i [31:0] $end
$var wire 1 ! CLK $end
$var wire 32 [" RDdata_i [31:0] $end
$var wire 1 " nRESET $end
$var wire 32 \" pc_i [31:0] $end
$var wire 32 ]" instr_i [31:0] $end
$var wire 1 Y RegWrite_i $end
$var wire 5 ^" RDaddr_i [4:0] $end
$var wire 1 _ MemWrite_i $end
$var wire 1 ` MemToReg_i $end
$var wire 1 a MemRead_i $end
$var reg 32 _" ALUresult_o [31:0] $end
$var reg 1 i MemRead_o $end
$var reg 1 h MemToReg_o $end
$var reg 1 g MemWrite_o $end
$var reg 5 `" RDaddr_o [4:0] $end
$var reg 32 a" RDdata_o [31:0] $end
$var reg 1 d RegWrite_o $end
$upscope $end
$scope module uForwarding $end
$var wire 5 b" MEM_RDaddr_i [4:0] $end
$var wire 1 d MEM_RegWrite_i $end
$var wire 1 D WB_RegWrite_i $end
$var wire 5 c" WB_RDaddr_i [4:0] $end
$var wire 5 d" EX_RTaddr_i [4:0] $end
$var wire 5 e" EX_RSaddr_i [4:0] $end
$var reg 2 f" forward_0 [1:0] $end
$var reg 2 g" forward_1 [1:0] $end
$upscope $end
$scope module uHazardUnit $end
$var wire 5 h" ID_EXrd_i [4:0] $end
$var wire 5 i" IF_IDrs_i [4:0] $end
$var wire 5 j" IF_IDrt_i [4:0] $end
$var wire 1 ) hazard_o $end
$var wire 1 a ID_EX_MemRead_i $end
$upscope $end
$scope module uID_EX $end
$var wire 1 ! CLK $end
$var wire 5 k" RSaddr_i [4:0] $end
$var wire 5 l" RTaddr_i [4:0] $end
$var wire 32 m" imm_extd_ISi [31:0] $end
$var wire 1 " nRESET $end
$var wire 32 n" pc_i [31:0] $end
$var wire 32 o" instr_i [31:0] $end
$var wire 1 : RegWrite_i $end
$var wire 32 p" RDdata1_i [31:0] $end
$var wire 32 q" RDdata0_i [31:0] $end
$var wire 5 r" RDaddr_i [4:0] $end
$var wire 1 < MemWrite_i $end
$var wire 1 = MemToReg_i $end
$var wire 1 > MemRead_i $end
$var wire 1 ? ALUsrc_i $end
$var wire 2 s" ALUop_i [1:0] $end
$var reg 2 t" ALUop_o [1:0] $end
$var reg 1 b ALUsrc_o $end
$var reg 1 a MemRead_o $end
$var reg 1 ` MemToReg_o $end
$var reg 1 _ MemWrite_o $end
$var reg 5 u" RDaddr_o [4:0] $end
$var reg 32 v" RDdata0_o [31:0] $end
$var reg 32 w" RDdata1_o [31:0] $end
$var reg 5 x" RSaddr_o [4:0] $end
$var reg 5 y" RTaddr_o [4:0] $end
$var reg 1 Y RegWrite_o $end
$var reg 32 z" imm_extd_ISo [31:0] $end
$var reg 32 {" instr_o [31:0] $end
$var reg 32 |" pc_o [31:0] $end
$upscope $end
$scope module uIF_ID $end
$var wire 1 ! CLK $end
$var wire 1 , flush_i $end
$var wire 1 ) hazard_i $end
$var wire 1 " nRESET $end
$var wire 32 }" pc_i [31:0] $end
$var wire 12 ~" pc_offset_i [11:0] $end
$var wire 32 !# instr_i [31:0] $end
$var reg 32 "# instr_o [31:0] $end
$var reg 32 ## pc_o [31:0] $end
$var reg 12 $# pc_offset_o [11:0] $end
$upscope $end
$scope module uINSTR_MEM $end
$var wire 1 ! CLK $end
$var wire 1 " nRESET $end
$var wire 32 %# addr_i [31:0] $end
$var reg 32 &# instr_o [31:0] $end
$upscope $end
$scope module uMEM_WB $end
$var wire 32 '# ALUresult_i [31:0] $end
$var wire 1 ! CLK $end
$var wire 32 (# MemData_i [31:0] $end
$var wire 1 h MemToReg_i $end
$var wire 5 )# RDaddr_i [4:0] $end
$var wire 1 d RegWrite_i $end
$var wire 1 " nRESET $end
$var reg 32 *# ALUresult_o [31:0] $end
$var reg 32 +# MemData_o [31:0] $end
$var reg 1 F MemToReg_o $end
$var reg 5 ,# RDaddr_o [4:0] $end
$var reg 1 D RegWrite_o $end
$upscope $end
$scope module uMux_ctrl $end
$var wire 2 -# ALUop_i [1:0] $end
$var wire 1 p ALUsrc_i $end
$var wire 1 o MemRead_i $end
$var wire 1 n MemToReg_i $end
$var wire 1 m MemWrite_i $end
$var wire 5 .# RDaddr_i [4:0] $end
$var wire 1 l RegWrite_i $end
$var wire 1 ) hazard_i $end
$var reg 2 /# ALUop_o [1:0] $end
$var reg 1 ? ALUsrc_o $end
$var reg 1 > MemRead_o $end
$var reg 1 = MemToReg_o $end
$var reg 1 < MemWrite_o $end
$var reg 5 0# RDaddr_o [4:0] $end
$var reg 1 : RegWrite_o $end
$upscope $end
$scope module uPC $end
$var wire 1 ! CLK $end
$var wire 1 ) hazard_i $end
$var wire 1 " nRESET $end
$var wire 32 1# pc_i [31:0] $end
$var reg 32 2# pc_o [31:0] $end
$upscope $end
$scope module uRegisters $end
$var wire 1 ! CLK $end
$var wire 5 3# RDaddr_i [4:0] $end
$var wire 32 4# RDdata_i [31:0] $end
$var wire 5 5# RSaddr_i [4:0] $end
$var wire 32 6# RSdata_o [31:0] $end
$var wire 5 7# RTaddr_i [4:0] $end
$var wire 32 8# RTdata_o [31:0] $end
$var wire 1 D RegWrite_i $end
$var wire 1 " nRESET $end
$var wire 32 9# x1_o [31:0] $end
$var wire 32 :# x2_o [31:0] $end
$var wire 32 ;# x3_o [31:0] $end
$var wire 32 <# x4_o [31:0] $end
$var wire 32 =# x5_o [31:0] $end
$var integer 32 ># i [31:0] $end
$upscope $end
$upscope $end
$upscope $end
$enddefinitions $end
$comment Show the parameter values. $end
$dumpall
b11 ?"
b10 >"
b100 ="
b101 <"
b1 ;"
$end
#0
$dumpvars
bx >#
bx =#
bx <#
bx ;#
bx :#
bx 9#
bx 8#
bx 7#
bx 6#
bx 5#
bx 4#
bx 3#
bx 2#
bx 1#
bx 0#
bx /#
bx .#
bx -#
bx ,#
bx +#
bx *#
bx )#
bx (#
bx '#
bx &#
bx %#
bx $#
bx ##
bx "#
bx !#
bx ~"
bx }"
bx |"
bx {"
bx z"
bx y"
bx x"
bx w"
bx v"
bx u"
bx t"
bx s"
bx r"
bx q"
bx p"
bx o"
bx n"
bx m"
bx l"
bx k"
bx j"
bx i"
bx h"
bx g"
bx f"
bx e"
bx d"
bx c"
bx b"
bx a"
bx `"
bx _"
bx ^"
bx ]"
bx \"
bx ["
bx Z"
bx Y"
bx X"
bx W"
b100000000110000001000000001 V"
b1000000001110000011000000101 U"
b1100000010110000101000001001 T"
b11110000111000001101 S"
b110011001000100001000100000000 R"
b1110111011001100101010101000100 Q"
b10111011101010101001100110001000 P"
b11111111111011101101110111001100 O"
bx N"
bx M"
bx L"
bx K"
bx J"
xI"
xH"
xG"
xF"
bx E"
bx D"
bx C"
bx B"
bx A"
bx @"
bx :"
bx 9"
bx 8"
bx0 7"
bx 6"
bx 5"
bx 4"
bx 3"
bx 2"
bx 1"
bx 0"
bx /"
bx ."
bx -"
bx ,"
bx +"
bx *"
bx )"
bx ("
bx '"
bx &"
bx %"
bx $"
bx #"
bx ""
bx !"
bx ~
bx }
0|
bx {
b0 z
bx y
bx x
b100 w
bx0 v
bx u
bx t
bx s
bx r
bx q
xp
xo
xn
xm
xl
xk
bx j
xi
xh
xg
bx f
bx e
xd
bx c
xb
xa
x`
x_
bx ^
bx ]
bx \
bx [
bx Z
xY
bx X
bx W
bx V
bx U
bx T
bx S
bx R
bx Q
b100000000110000001000000001 P
b1000000001110000011000000101 O
b1100000010110000101000001001 N
b11110000111000001101 M
b110011001000100001000100000000 L
b1110111011001100101010101000100 K
b10111011101010101001100110001000 J
b11111111111011101101110111001100 I
bx H
bx G
xF
bx E
xD
bx C
bx B
bx A
bx @
x?
x>
x=
x<
bx ;
x:
bx 9
bx 8
bx 7
bx 6
bx 5
bx 4
bx 3
bx 2
bx 1
bx0 0
x/
bx .
bx -
x,
bx +
bx *
x)
bx (
bx '
bx &
bx %
bx $
bx #
x"
x!
$end
#10
0!
1"
#20
0=
0<
0>
0:
1?
b0 @
b0 s"
b0 /#
b0 ;
b0 r"
b0 0#
0,
b100 &
b100 5"
b100 1#
0k
0n
0m
0o
0l
1p
b0 q
b0 M"
b0 -#
b0 -
b0 ""
b0 m"
b10000000000 %
b10000000000 ~"
0)
b0 r
b0 @"
b0 Z"
b0 '
b0 t
b0 4"
b0 0
b0 v
b0 7"
b0 D"
0/
b0 E"
b0 .#
b0 L"
b0 l"
b0 k"
1I"
0H"
0F"
1G"
b0 6
b0 J"
b0 p"
b0 8#
b0 7#
b0 7
b0 K"
b0 q"
b0 6#
b0 5#
b0 h"
b0 j"
b0 i"
b0 S
b0 !"
b0 T
b0 ~
b10000010000011 (
b10000010000011 !#
b10000010000011 &#
b0 s
b0 :"
b0 C"
b0 A
b0 &"
b0 9"
b0 A"
b0 C
b0 W"
b0 (#
b0 9
b0 -"
b0 8"
b0 8
b0 ("
b0 2"
b0 ["
b1 *
b1 /"
b1 g"
b1 +
b1 *"
b1 f"
b0 B
b0 #"
b0 )"
b0 ."
b0 4#
b0 .
b0 {
b0 6"
b0 U
b0 }
b0 $#
b0 R
b0 o"
b0 "#
b0 Q
b0 u
b0 n"
b0 ##
b100 $
b100 x
b100 3"
b100 }"
b0 #
b0 y
b0 %#
b0 2#
b0 1
b0 =#
b0 2
b0 <#
b0 3
b0 ;#
b0 4
b0 :#
b0 5
b0 9#
b0 Z
b0 d"
b0 y"
b0 [
b0 e"
b0 x"
0_
0a
0`
0Y
0b
b0 c
b0 B"
b0 t"
b0 ^
b0 ^"
b0 u"
b0 X
b0 '"
b0 z"
b0 \
b0 1"
b0 w"
b0 ]
b0 ,"
b0 v"
b0 W
b0 ]"
b0 {"
b0 V
b0 \"
b0 |"
0g
0i
0h
0d
b0 f
b0 `"
b0 b"
b0 )#
b0 e
b0 X"
b0 a"
b100000000110000001000000001 N"
b0 j
b0 +"
b0 0"
b0 Y"
b0 _"
b0 '#
b0 G
b0 $"
b0 +#
0F
0D
b0 E
b0 c"
b0 ,#
b0 3#
b0 H
b0 %"
b0 *#
b100000 >#
1!
0"
#30
1"
#40
0!
#50
1=
1>
1:
b1 @
b1 s"
b1 /#
b1 ;
b1 r"
b1 0#
b1 %
b1 ~"
1l
1n
1o
b1 q
b1 M"
b1 -#
b1000 &
b1000 5"
b1000 1#
b10000000010000100000011 (
b10000000010000100000011 !#
b10000000010000100000011 &#
b100000000000 0
b100000000000 v
b100000000000 7"
b10 D"
b11 E"
b1 .#
b11 L"
b1 S
b1 !"
1b
b1000 $
b1000 x
b1000 3"
b1000 }"
b100 #
b100 y
b100 %#
b100 2#
b10000000000 .
b10000000000 {
b10000000000 6"
b10000000000 U
b10000000000 }
b10000000000 $#
b10000010000011 R
b10000010000011 o"
b10000010000011 "#
b100000000100 '
b100000000100 t
b100000000100 4"
b100 Q
b100 u
b100 n"
b100 ##
1!
#60
0!
#70
0=
0>
0:
0?
b0 @
b0 s"
b0 /#
b0 ;
b0 r"
b0 0#
b10000000001 %
b10000000001 ~"
1)
b100 -
b100 ""
b100 m"
b1100 &
b1100 5"
b1100 1#
b100000000010000110000011 (
b100000000010000110000011 !#
b100000000010000110000011 &#
b1 s
b1 :"
b1 C"
b10 A"
b10 0
b10 v
b10 7"
b10 .#
b100 l"
b100 7#
b100 j"
b10 S
b10 !"
b100 T
b100 ~
b1100 $
b1100 x
b1100 3"
b1100 }"
b1000 #
b1000 y
b1000 %#
b1000 2#
1a
1`
1Y
b1 c
b1 B"
b1 t"
b1 ^
b1 ^"
b1 u"
b10000010000011 W
b10000010000011 ]"
b10000010000011 {"
b100 V
b100 \"
b100 |"
b1 .
b1 {
b1 6"
b1 U
b1 }
b1 $#
b10000000010000100000011 R
b10000000010000100000011 o"
b10000000010000100000011 "#
b1010 '
b1010 t
b1010 4"
b1000 Q
b1000 u
b1000 n"
b1000 ##
1!
#80
0!
#90
1=
1>
1:
1?
b1 @
b1 s"
b1 /#
b10 ;
b10 r"
b10 0#
0)
b100000000110000001000000001 C
b100000000110000001000000001 W"
b100000000110000001000000001 (#
b0 s
b0 :"
b0 C"
b100000000010 0
b100000000010 v
b100000000010 7"
1i
1h
1d
b1 f
b1 `"
b1 b"
b1 )#
b100 Z
b100 d"
b100 y"
0a
0`
0Y
0b
b0 c
b0 B"
b0 t"
b0 ^
b0 ^"
b0 u"
b100 X
b100 '"
b100 z"
b10000000010000100000011 W
b10000000010000100000011 ]"
b10000000010000100000011 {"
b1000 V
b1000 \"
b1000 |"
b10000000001 .
b10000000001 {
b10000000001 6"
b10000000001 U
b10000000001 }
b10000000001 $#
b100000001110 '
b100000001110 t
b100000001110 4"
b1100 Q
b1100 u
b1100 n"
b1100 ##
1!
#100
0!
#110
0=
0>
0:
0?
b0 @
b0 s"
b0 /#
b0 ;
b0 r"
b0 0#
b10 %
b10 ~"
1)
b100 r
b100 @"
b100 Z"
b1000 -
b1000 ""
b1000 m"
b10000 &
b10000 5"
b10000 1#
b110000000010001000000011 (
b110000000010001000000011 !#
b110000000010001000000011 &#
b100 A
b100 &"
b100 9"
b1 s
b1 :"
b1 C"
b0 C
b0 W"
b0 (#
b100000000110000001000000001 B
b100000000110000001000000001 #"
b100000000110000001000000001 )"
b100000000110000001000000001 ."
b100000000110000001000000001 4#
b11 .#
b1000 l"
b1000 7#
b1000 j"
b11 S
b11 !"
b1000 T
b1000 ~
b10000 $
b10000 x
b10000 3"
b10000 }"
b1100 #
b1100 y
b1100 %#
b1100 2#
1a
1`
1Y
1b
b1 c
b1 B"
b1 t"
b10 ^
b10 ^"
b10 u"
b1100 V
b1100 \"
b1100 |"
0i
0h
0d
b0 f
b0 `"
b0 b"
b0 )#
b100000000110000001000000001 G
b100000000110000001000000001 $"
b100000000110000001000000001 +#
1F
1D
b1 E
b1 c"
b1 ,#
b1 3#
b100000000010000110000011 R
b100000000010000110000011 o"
b100000000010000110000011 "#
1!
#120
0!
#130
1=
1>
1:
1?
b1 @
b1 s"
b1 /#
b11 ;
b11 r"
b11 0#
0)
b0 r
b0 @"
b0 Z"
b0 B
b0 #"
b0 )"
b0 ."
b0 4#
b1000000001110000011000000101 C
b1000000001110000011000000101 W"
b1000000001110000011000000101 (#
b0 s
b0 :"
b0 C"
b0 A
b0 &"
b0 9"
b100 0
b100 v
b100 7"
b0 G
b0 $"
b0 +#
0F
0D
b0 E
b0 c"
b0 ,#
b0 3#
1i
1h
1d
b10 f
b10 `"
b10 b"
b10 )#
b1000000001110000011000000101 N"
b100 j
b100 +"
b100 0"
b100 Y"
b100 _"
b100 '#
b1000 Z
b1000 d"
b1000 y"
0a
0`
0Y
0b
b0 c
b0 B"
b0 t"
b0 ^
b0 ^"
b0 u"
b1000 X
b1000 '"
b1000 z"
b100000000010000110000011 W
b100000000010000110000011 ]"
b100000000010000110000011 {"
b100000000110000001000000001 5
b100000000110000001000000001 9#
b10 .
b10 {
b10 6"
b10 U
b10 }
b10 $#
b10100 '
b10100 t
b10100 4"
b10000 Q
b10000 u
b10000 n"
b10000 ##
1!
#140
0!
#150
0=
0>
0:
0?
b0 @
b0 s"
b0 /#
b0 ;
b0 r"
b0 0#
b10000000010 %
b10000000010 ~"
1)
b1000 r
b1000 @"
b1000 Z"
b1100 -
b1100 ""
b1100 m"
b10100 &
b10100 5"
b10100 1#
b1000000000010001010000011 (
b1000000000010001010000011 !#
b1000000000010001010000011 &#
b1000 A
b1000 &"
b1000 9"
b1 s
b1 :"
b1 C"
b0 C
b0 W"
b0 (#
b1000000001110000011000000101 B
b1000000001110000011000000101 #"
b1000000001110000011000000101 )"
b1000000001110000011000000101 ."
b1000000001110000011000000101 4#
b100 .#
b1100 l"
b1100 7#
b1100 j"
b100 S
b100 !"
b1100 T
b1100 ~
b10100 $
b10100 x
b10100 3"
b10100 }"
b10000 #
b10000 y
b10000 %#
b10000 2#
1a
1`
1Y
1b
b1 c
b1 B"
b1 t"
b11 ^
b11 ^"
b11 u"
b10000 V
b10000 \"
b10000 |"
0i
0h
0d
b0 f
b0 `"
b0 b"
b0 )#
b100000000110000001000000001 N"
b0 j
b0 +"
b0 0"
b0 Y"
b0 _"
b0 '#
b1000000001110000011000000101 G
b1000000001110000011000000101 $"
b1000000001110000011000000101 +#
1F
1D
b10 E
b10 c"
b10 ,#
b10 3#
b100 H
b100 %"
b100 *#
b110000000010001000000011 R
b110000000010001000000011 o"
b110000000010001000000011 "#
1!
#160
0!
#170
1=
1>
1:
1?
b1 @
b1 s"
b1 /#
b100 ;
b100 r"
b100 0#
0)
b0 r
b0 @"
b0 Z"
b0 B
b0 #"
b0 )"
b0 ."
b0 4#
b1100000010110000101000001001 C
b1100000010110000101000001001 W"
b1100000010110000101000001001 (#
b0 s
b0 :"
b0 C"
b0 A
b0 &"
b0 9"
b100000000100 0
b100000000100 v
b100000000100 7"
b0 G
b0 $"
b0 +#
0F
0D
b0 E
b0 c"
b0 ,#
b0 3#
b0 H
b0 %"
b0 *#
1i
1h
1d
b11 f
b11 `"
b11 b"
b11 )#
b1100000010110000101000001001 N"
b1000 j
b1000 +"
b1000 0"
b1000 Y"
b1000 _"
b1000 '#
b1100 Z
b1100 d"
b1100 y"
0a
0`
0Y
0b
b0 c
b0 B"
b0 t"
b0 ^
b0 ^"
b0 u"
b1100 X
b1100 '"
b1100 z"
b110000000010001000000011 W
b110000000010001000000011 ]"
b110000000010001000000011 {"
b1000000001110000011000000101 4
b1000000001110000011000000101 :#
b10000000010 .
b10000000010 {
b10000000010 6"
b10000000010 U
b10000000010 }
b10000000010 $#
b100000011000 '
b100000011000 t
b100000011000 4"
b10100 Q
b10100 u
b10100 n"
b10100 ##
1!
#180
0!
#190
0=
0>
0:
0?
b0 @
b0 s"
b0 /#
b0 ;
b0 r"
b0 0#
b10000000001 %
b10000000001 ~"
1)
b1100 r
b1100 @"
b1100 Z"
b10000 -
b10000 ""
b10000 m"
b11000 &
b11000 5"
b11000 1#
b100010000000110110011 (
b100010000000110110011 !#
b100010000000110110011 &#
b1100 A
b1100 &"
b1100 9"
b1 s
b1 :"
b1 C"
b0 C
b0 W"
b0 (#
b1100000010110000101000001001 B
b1100000010110000101000001001 #"
b1100000010110000101000001001 )"
b1100000010110000101000001001 ."
b1100000010110000101000001001 4#
b101 .#
b10000 l"
b10000 7#
b10000 j"
b101 S
b101 !"
b10000 T
b10000 ~
b11000 $
b11000 x
b11000 3"
b11000 }"
b10100 #
b10100 y
b10100 %#
b10100 2#
1a
1`
1Y
1b
b1 c
b1 B"
b1 t"
b100 ^
b100 ^"
b100 u"
b10100 V
b10100 \"
b10100 |"
0i
0h
0d
b0 f
b0 `"
b0 b"
b0 )#
b100000000110000001000000001 N"
b0 j
b0 +"
b0 0"
b0 Y"
b0 _"
b0 '#
b1100000010110000101000001001 G
b1100000010110000101000001001 $"
b1100000010110000101000001001 +#
1F
1D
b11 E
b11 c"
b11 ,#
b11 3#
b1000 H
b1000 %"
b1000 *#
b1000000000010001010000011 R
b1000000000010001010000011 o"
b1000000000010001010000011 "#
1!
#200
0!
#210
1=
1>
1:
1?
b1 @
b1 s"
b1 /#
b101 ;
b101 r"
b101 0#
0)
b0 r
b0 @"
b0 Z"
b0 B
b0 #"
b0 )"
b0 ."
b0 4#
b11110000111000001101 C
b11110000111000001101 W"
b11110000111000001101 (#
b0 s
b0 :"
b0 C"
b0 A
b0 &"
b0 9"
b100000000010 0
b100000000010 v
b100000000010 7"
b0 G
b0 $"
b0 +#
0F
0D
b0 E
b0 c"
b0 ,#
b0 3#
b0 H
b0 %"
b0 *#
1i
1h
1d
b100 f
b100 `"
b100 b"
b100 )#
b11110000111000001101 N"
b1100 j
b1100 +"
b1100 0"
b1100 Y"
b1100 _"
b1100 '#
b10000 Z
b10000 d"
b10000 y"
0a
0`
0Y
0b
b0 c
b0 B"
b0 t"
b0 ^
b0 ^"
b0 u"
b10000 X
b10000 '"
b10000 z"
b1000000000010001010000011 W
b1000000000010001010000011 ]"
b1000000000010001010000011 {"
b1100000010110000101000001001 3
b1100000010110000101000001001 ;#
b10000000001 .
b10000000001 {
b10000000001 6"
b10000000001 U
b10000000001 }
b10000000001 $#
b100000011010 '
b100000011010 t
b100000011010 4"
b11000 Q
b11000 u
b11000 n"
b11000 ##
1!
#220
0!
